{
    "NavHomePage": "[data-icon='home']",
    "containerWidget": ".t--draggable-containerwidget",
    "inputWidget": ".t--draggable-inputwidget",
    "togglebutton": "input[type='checkbox']",
    "inputPropsDataType": ".t--property-control-datatype",
    "inputdatatypeplaceholder": ".t--property-control-placeholder",
    "buttonWidget": ".t--draggable-buttonwidget",
    "buttonColor": ".t--property-control-buttoncolor input",
    "checkboxWidget": ".t--draggable-checkboxwidget",
    "buttonStyleDropdown": ".t--property-control-buttonstyle [name='downArrow']",
    "buttonBackground": ".sc-ecQjpJ > div > .bp3-button",
    "copyWidget": ".t--copy-widget svg",
    "removeWidget": ".t--delete-widget svg",
    "propertypaneText": ".t--propertypane .t--property-pane-view",
    "formButtonWidget": ".t--widget-formbuttonwidget",
    "dropdownwidget": ".t--widget-dropdownwidget",
    "textWidget": ".t--draggable-textwidget",
    "tableWidget": ".t--draggable-tablewidget",
    "tableOnRowSelected": ".t--property-control-onrowselected",
    "dropdownSelectButton": ".t--open-dropdown-Select",
    "buttonOnClick": ".t--property-control-onclick .bp3-popover-target",
    "buttonCreateApi": "a.t--create-api-btn",
    "Scrollbutton": ".t--property-control-scrollcontents input",
    "label": ".t--draggable-inputwidget label",
    "inputval": ".t--draggable-inputwidget span.t--widget-name",
    "dataclass": "'.bp3-input",
    "datatype": ".t--property-control-datatype .bp3-popover-target",
    "rowHeight": ".t--property-control-defaultrowheight .bp3-popover-target",
    "innertext": ".t--draggable-inputwidget input",
    "defaultinput": ".t--property-control-defaultinput",
    "requiredjs": ".t--property-control-required input",
    "visible": ".t--property-control-visible input",
    "disable": ".t--property-control-disabled",
    "menubar": ".bp3-menu",
    "menupop": ".bp3-popover",
    "defaultcheck": ".t--property-control-defaultselected input",
    "indicator": ".bp3-checkbox",
    "Regex": ".t--property-control-regex .CodeMirror-lines",
    "RadioInput": ".t--property-control-options input",
    "checkboxInput": ".t--draggable-checkboxwidget span.t--widget-name",
    "checkboxLabel": ".t--draggable-checkboxwidget label",
    "containerD": "div[type='CONTAINER_WIDGET']",
    "containerWrapper": "div[data-testid='container-wrapper']",
    "defaultInput": ".t--property-control-defaulttext .CodeMirror-code",
    "placeholder": ".t--property-control-placeholder .CodeMirror-code",
    "inputLabelControl": ".t--property-control-label .CodeMirror-code",
    "inputTextControl": ".t--property-control-text .CodeMirror-code",
    "inputTooltipControl": ".t--property-control-tooltip .CodeMirror-code",
    "inputButtonPos": ".t--draggable-inputwidget button",
    "deleteWidget": ".t--modal-widget>div .t--widget-delete-control",
    "textbuttonWidget": ".t--draggable-buttonwidget button.bp3-button[type='button']",
    "textInputval": ".t--draggable-textwidget span.t--widget-name",
    "textCenterAlign": ".t--property-control-textalign .t--icon-tab-CENTER",
    "ColumnAction": ".t--property-control-rowbutton button",
    "SearchTextChangeAction": ".t--property-control-onsearchtextchanged button",
    "tableSearchTextChangeSelected": ".t--property-control-onsearchtextchanged",
    "videoWidget": ".t--draggable-videowidget",
    "audioWidget": ".t--draggable-audiowidget",
    "autoPlay": ".t--property-control-autoplay > .bp3-control > .bp3-control-indicator",
    "defaultOption": ".t--property-control-defaultoption .CodeMirror-code",
    "dropdownSingleSelect": ".bp3-popover-target > div > .bp3-button",
    "menuButton": ".bp3-popover2-target",
    "defaultSingleSelectValue": ".bp3-popover-target > div > .bp3-button > .bp3-button-text",
    "widgetBtn": ".t--widget-buttonwidget button",
    "widgetBtnText": ".t--widget-buttonwidget button .bp3-button-text",
    "iconWidgetBtn": ".t--widget-iconwidget svg",
    "actionSelect": ".t--open-dropdown-Select-Action",
    "inputOnTextChange": ".t--property-control-ontextchanged .t--open-dropdown-Select-Action",
    "tableActionSelect": ".t--property-control-onsearchtextchanged .t--open-dropdown-Select-Action",
    "chartWidget": ".t--widget-chartwidget",
    "tableOnRowSelect": ".t--property-control-onrowselected .t--open-dropdown-Select-Action",
    "switchInput": ".t--draggable-switchwidget span.t--widget-name",
    "switchLabel": ".t--draggable-switchwidget label",
    "multiSelectInput": ".t--draggable-multiselectwidget span.t--widget-name",
    "multiSelectLabel": ".t--draggable-multiselectwidget label",
    "addColumn": ".t--add-column-btn",
    "deleteColumn": ".t--delete-column-btn",
    "editCreatedColumn": ".t--property-control-createdcolumns input",
    "alignOpt": ".t--dropdown-option",
    "tableCol": ".draggable-header ",
    "centerAlign": ".t--icon-tab-CENTER",
    "rightAlign": ".t--icon-tab-RIGHT",
    "leftAlign": ".t--icon-tab-LEFT",
    "bold": ".t--button-tab-BOLD",
    "italics": ".t--button-tab-ITALIC",
    "underline": ".t--button-tab-UNDERLINE",
    "verticalTop": ".t--icon-tab-TOP",
    "verticalCenter": ".t--icon-tab-CENTER",
    "verticalBottom": ".t--icon-tab-BOTTOM",
    "textColor": ".t--property-control-textcolor input",
    "boadercolorPicker": ".t--property-control-bordercolour input",
    "boxShadowColorPicker": ".t--property-control-shadowcolor input",
    "boxShadow": ".t--property-control-boxshadow .bp3-button-group",
    "backgroundcolorPicker": ".t--property-control-backgroundcolour input",
    "backgroundcolorPickerNew": ".t--property-control-backgroundcolor input",
    "greenColor": "//div[@color='#03b365']",
    "yellowColor": "//div[@color='#FFC13D']",
    "blueColor": "//div[@color='#3366FF']",
    "toggleJsColor": ".t--property-control-textcolor .t--js-toggle",
    "backgroundColor": ".t--property-control-cellbackground input",
    "toggleJsBcgColor": ".t--property-control-cellbackground .t--js-toggle",
    "toggleTextAlign": ".t--property-control-textalign .t--js-toggle",
    "toggleTextStyle": ".t--property-control-fontstyle .t--js-toggle",
    "textSize": ".t--property-control-textsize .bp3-popover-target",
    "toggleTextSize": ".t--property-control-textsize .t--js-toggle",
    "toggleVerticalAlig": ".t--property-control-verticalalignment .t--js-toggle",
    "toggleVisible": ".t--property-control-visible .t--js-toggle",
    "backgroundJSVisible":".t--property-control-background .t--js-toggle",
    "itemBackgroundJSVisible":".t--property-control-itembackground .t--js-toggle",
    "inputToggleVisible": "div.t--property-control-visible div.CodeMirror-lines",
    "toggleDisable": ".t--property-control-disabled .t--js-toggle",
    "inputToggleDisable": "div.t--property-control-disabled div.CodeMirror-code pre span",
    "toggleOnClick": ".t--property-control-onclick .t--js-toggle",
    "toggleChartType": ".t--property-control-charttype .t--js-toggle",
    "inputToggleOnClick": ".t--property-control-onclick div.CodeMirror-lines",
    "tableBtn": ".t--draggable-tablewidget .bp3-button",
    "tableIconBtn": ".t--draggable-tablewidget .bp3-icon",
    "toastAction": ".Toastify__toast-container--top-right .t--toast-action",
    "toastActionText": ".Toastify__toast-container--top-right .t--toast-action span",
    "defaultColName": "[data-rbd-draggable-id='customColumn1'] input",
    "selectWidget": ".t--open-dropdown-Select-Widget",
    "switchWidget": ".t--widget-switchwidget",
    "toastMsg": ".t--toast-action span",
    "deleteToast": "div[class = 'undo-section'] span[type='h6']",
    "apiCallToast": "div.t--toast-action span[type='p1']",
    "datepickerInput": ".t--draggable-datepickerwidget2 input",
    "selectToday": ".DayPicker-Day--today",
    "switchWidgetActive": ".t--switch-widget-active",
    "switchWidgetInactive": ".t--switch-widget-inactive",
    "switchWidgetLoading": ".t--switch-widget-loading",
    "colorsAvailable": ".bp3-popover-dismiss",
    "listWidget":"[type=LIST_WIDGET]",
    "itemContainerWidget":"[type=CONTAINER_WIDGET]",
    "listWidgetName":".t--propery-page-title",
    "toggleBackground": ".t--property-control-background .t--js-toggle",
    "toggleItemBackground": ".t--property-control-itembackground .t--js-toggle",
    "chartPlotGroup": "g.raphael-group-63-plot-group",
    "toggleEnableMultirowselection": ".t--property-control-enablemultirowselection .bp3-control-indicator",
    "formWidget": ".t--draggable-formwidget",
    "searchField": "[type=search]",
    "defaultSelectedRowField":".t--property-control-defaultselectedrow .CodeMirror-line",
    "selectedRow":".selected-row",
    "removeTableWidget": ".t--delete-widget",
    "nextPageButton": ".t--table-widget-next-page",
    "addWidget": ".t--entity.group.widgets .t--entity-add-btn",
    "closeWidgetBar": ".t--close-widgets-sidebar",
    "tabedataField": ".t--property-control-tabledata",
    "exploreWidget": "[class$=bp3-panel-stack-view] > div:nth-child(1) > div:nth-child(1) > span:nth-child(4)",
    "widgetRelatedDocument": "div.main > div:nth-child(1) > div:nth-child(1)",
    "rowHeightShortOpt":".bp3-popover-content > div > div:nth-child(1)",
    "tbIndex0": "[class=td][data-colindex='0'][data-rowindex='0']",
    "filterApplyBtn":".t--apply-filter-btn",
    "filterCloseBtn":".t--close-filter-btn",
    "header":"#header-root",
    "explorerSwitchId": "#switcher--explorer",
    "widgetSwitchId":"#switcher--widgets",
    "selectDropDownWidget": ".t--draggable-dropdownwidget",
    "selectWidgetDisabled": ".t--property-control-disabled input"
}
